^C:\USERS\MITSU\DESKTOP\GAME\CLASSES\APPDELEGATE.CPP|C:\USERS\MITSU\DESKTOP\GAME\CLASSES\ARENAVIEW.CPP|C:\USERS\MITSU\DESKTOP\GAME\CLASSES\CIRCLE.CPP|C:\USERS\MITSU\DESKTOP\GAME\CLASSES\CIRCLEFACTORY.CPP|C:\USERS\MITSU\DESKTOP\GAME\CLASSES\CONSTANTS.CPP|C:\USERS\MITSU\DESKTOP\GAME\CLASSES\DOWNLOADMANAGER.CPP|C:\USERS\MITSU\DESKTOP\GAME\CLASSES\GAME.CPP|C:\USERS\MITSU\DESKTOP\GAME\CLASSES\GAMEBUTTONS.CPP|C:\USERS\MITSU\DESKTOP\GAME\CLASSES\HELLOWORLDSCENE.CPP|C:\USERS\MITSU\DESKTOP\GAME\CLASSES\HELPER.CPP|C:\USERS\MITSU\DESKTOP\GAME\CLASSES\JSONCPP.CPP|C:\USERS\MITSU\DESKTOP\GAME\CLASSES\LEVELSWINDOW.CPP|C:\USERS\MITSU\DESKTOP\GAME\CLASSES\LIFEBAR.CPP|C:\USERS\MITSU\DESKTOP\GAME\CLASSES\MAINMENU.CPP|C:\USERS\MITSU\DESKTOP\GAME\CLASSES\PANELSETTINGS.CPP|C:\USERS\MITSU\DESKTOP\GAME\CLASSES\SCOREMANAGER.CPP|C:\USERS\MITSU\DESKTOP\GAME\CLASSES\SETTINGS.CPP|C:\USERS\MITSU\DESKTOP\GAME\CLASSES\SETTINGSVIEW.CPP|C:\USERS\MITSU\DESKTOP\GAME\CLASSES\UI.CPP|C:\USERS\MITSU\DESKTOP\GAME\COCOS2D\COCOS\PRECHEADER.CPP|C:\USERS\MITSU\DESKTOP\GAME\PROJ.WIN32\MAIN.CPP
C:\USERS\MITSU\DESKTOP\GAME\PROJ.WIN32\GAME.DIR\DEBUG\LEVELSWINDOW.OBJ
C:\USERS\MITSU\DESKTOP\GAME\PROJ.WIN32\GAME.DIR\DEBUG\SETTINGS.OBJ
C:\USERS\MITSU\DESKTOP\GAME\PROJ.WIN32\GAME.DIR\DEBUG\GAMEBUTTONS.OBJ
C:\USERS\MITSU\DESKTOP\GAME\PROJ.WIN32\GAME.DIR\DEBUG\SETTINGSVIEW.OBJ
C:\USERS\MITSU\DESKTOP\GAME\PROJ.WIN32\GAME.DIR\DEBUG\HELPER.OBJ
C:\USERS\MITSU\DESKTOP\GAME\PROJ.WIN32\GAME.DIR\DEBUG\PANELSETTINGS.OBJ
C:\USERS\MITSU\DESKTOP\GAME\PROJ.WIN32\GAME.DIR\DEBUG\MAIN.OBJ
C:\USERS\MITSU\DESKTOP\GAME\PROJ.WIN32\GAME.DIR\DEBUG\GAME.OBJ
C:\USERS\MITSU\DESKTOP\GAME\PROJ.WIN32\GAME.DIR\DEBUG\SCOREMANAGER.OBJ
C:\USERS\MITSU\DESKTOP\GAME\PROJ.WIN32\GAME.DIR\DEBUG\PRECHEADER.OBJ
C:\USERS\MITSU\DESKTOP\GAME\PROJ.WIN32\GAME.DIR\DEBUG\ARENAVIEW.OBJ
C:\USERS\MITSU\DESKTOP\GAME\PROJ.WIN32\GAME.DIR\DEBUG\MAINMENU.OBJ
C:\USERS\MITSU\DESKTOP\GAME\PROJ.WIN32\GAME.DIR\DEBUG\CONSTANTS.OBJ
C:\USERS\MITSU\DESKTOP\GAME\PROJ.WIN32\GAME.DIR\DEBUG\CIRCLEFACTORY.OBJ
C:\USERS\MITSU\DESKTOP\GAME\PROJ.WIN32\GAME.DIR\DEBUG\HELLOWORLDSCENE.OBJ
C:\USERS\MITSU\DESKTOP\GAME\PROJ.WIN32\GAME.DIR\DEBUG\JSONCPP.OBJ
C:\USERS\MITSU\DESKTOP\GAME\PROJ.WIN32\GAME.DIR\DEBUG\CIRCLE.OBJ
C:\USERS\MITSU\DESKTOP\GAME\PROJ.WIN32\GAME.DIR\DEBUG\APPDELEGATE.OBJ
C:\USERS\MITSU\DESKTOP\GAME\PROJ.WIN32\GAME.DIR\DEBUG\LIFEBAR.OBJ
C:\USERS\MITSU\DESKTOP\GAME\PROJ.WIN32\GAME.DIR\DEBUG\UI.OBJ
^C:\USERS\MITSU\DESKTOP\GAME\CLASSES\CONSTANTS.CPP
C:\USERS\MITSU\DESKTOP\GAME\PROJ.WIN32\GAME.DIR\DEBUG\CONSTANTS.OBJ
^C:\USERS\MITSU\DESKTOP\GAME\CLASSES\JSONCPP.CPP
C:\USERS\MITSU\DESKTOP\GAME\PROJ.WIN32\GAME.DIR\DEBUG\JSONCPP.OBJ
^C:\USERS\MITSU\DESKTOP\GAME\CLASSES\PANELSETTINGS.CPP
C:\USERS\MITSU\DESKTOP\GAME\PROJ.WIN32\GAME.DIR\DEBUG\PANELSETTINGS.OBJ
^C:\USERS\MITSU\DESKTOP\GAME\CLASSES\HELLOWORLDSCENE.CPP
C:\USERS\MITSU\DESKTOP\GAME\PROJ.WIN32\GAME.DIR\DEBUG\HELLOWORLDSCENE.OBJ
^C:\USERS\MITSU\DESKTOP\GAME\PROJ.WIN32\MAIN.CPP
C:\USERS\MITSU\DESKTOP\GAME\PROJ.WIN32\GAME.DIR\DEBUG\MAIN.OBJ
^C:\USERS\MITSU\DESKTOP\GAME\COCOS2D\COCOS\PRECHEADER.CPP
C:\USERS\MITSU\DESKTOP\GAME\PROJ.WIN32\GAME.DIR\DEBUG\PRECHEADER.OBJ
^C:\USERS\MITSU\DESKTOP\GAME\CLASSES\DOWNLOADMANAGER.CPP|C:\USERS\MITSU\DESKTOP\GAME\CLASSES\GAME.CPP|C:\USERS\MITSU\DESKTOP\GAME\CLASSES\LEVELSWINDOW.CPP|C:\USERS\MITSU\DESKTOP\GAME\CLASSES\MAINMENU.CPP
C:\USERS\MITSU\DESKTOP\GAME\PROJ.WIN32\GAME.DIR\DEBUG\MAINMENU.OBJ
C:\USERS\MITSU\DESKTOP\GAME\PROJ.WIN32\GAME.DIR\DEBUG\GAME.OBJ
C:\USERS\MITSU\DESKTOP\GAME\PROJ.WIN32\GAME.DIR\DEBUG\LEVELSWINDOW.OBJ
^C:\USERS\MITSU\DESKTOP\GAME\CLASSES\DOWNLOADMANAGER.CPP|C:\USERS\MITSU\DESKTOP\GAME\CLASSES\LEVELSWINDOW.CPP|C:\USERS\MITSU\DESKTOP\GAME\CLASSES\MAINMENU.CPP
C:\USERS\MITSU\DESKTOP\GAME\PROJ.WIN32\GAME.DIR\DEBUG\LEVELSWINDOW.OBJ
C:\USERS\MITSU\DESKTOP\GAME\PROJ.WIN32\GAME.DIR\DEBUG\MAINMENU.OBJ
C:\USERS\MITSU\DESKTOP\GAME\PROJ.WIN32\GAME.DIR\DEBUG\DOWNLOADMANAGER.OBJ
^C:\USERS\MITSU\DESKTOP\GAME\CLASSES\DOWNLOADMANAGER.CPP|C:\USERS\MITSU\DESKTOP\GAME\CLASSES\MAINMENU.CPP
C:\USERS\MITSU\DESKTOP\GAME\PROJ.WIN32\GAME.DIR\DEBUG\DOWNLOADMANAGER.OBJ
C:\USERS\MITSU\DESKTOP\GAME\PROJ.WIN32\GAME.DIR\DEBUG\MAINMENU.OBJ
^C:\USERS\MITSU\DESKTOP\GAME\CLASSES\DOWNLOADMANAGER.CPP|C:\USERS\MITSU\DESKTOP\GAME\CLASSES\GAME.CPP
C:\USERS\MITSU\DESKTOP\GAME\PROJ.WIN32\GAME.DIR\DEBUG\GAME.OBJ
C:\USERS\MITSU\DESKTOP\GAME\PROJ.WIN32\GAME.DIR\DEBUG\DOWNLOADMANAGER.OBJ
^C:\USERS\MITSU\DESKTOP\GAME\CLASSES\DOWNLOADMANAGER.CPP|C:\USERS\MITSU\DESKTOP\GAME\CLASSES\LEVELSWINDOW.CPP
C:\USERS\MITSU\DESKTOP\GAME\PROJ.WIN32\GAME.DIR\DEBUG\LEVELSWINDOW.OBJ
C:\USERS\MITSU\DESKTOP\GAME\PROJ.WIN32\GAME.DIR\DEBUG\DOWNLOADMANAGER.OBJ
^C:\USERS\MITSU\DESKTOP\GAME\CLASSES\DOWNLOADMANAGER.CPP|C:\USERS\MITSU\DESKTOP\GAME\CLASSES\DOWNLOADWINDOW.CPP|C:\USERS\MITSU\DESKTOP\GAME\CLASSES\LEVELSWINDOW.CPP|C:\USERS\MITSU\DESKTOP\GAME\CLASSES\MAINMENU.CPP
C:\USERS\MITSU\DESKTOP\GAME\PROJ.WIN32\GAME.DIR\DEBUG\LEVELSWINDOW.OBJ
C:\USERS\MITSU\DESKTOP\GAME\PROJ.WIN32\GAME.DIR\DEBUG\MAINMENU.OBJ
C:\USERS\MITSU\DESKTOP\GAME\PROJ.WIN32\GAME.DIR\DEBUG\DOWNLOADWINDOW.OBJ
C:\USERS\MITSU\DESKTOP\GAME\PROJ.WIN32\GAME.DIR\DEBUG\DOWNLOADMANAGER.OBJ
^C:\USERS\MITSU\DESKTOP\GAME\CLASSES\DOWNLOADWINDOW.CPP|C:\USERS\MITSU\DESKTOP\GAME\CLASSES\LEVELSWINDOW.CPP
C:\USERS\MITSU\DESKTOP\GAME\PROJ.WIN32\GAME.DIR\DEBUG\LEVELSWINDOW.OBJ
C:\USERS\MITSU\DESKTOP\GAME\PROJ.WIN32\GAME.DIR\DEBUG\DOWNLOADWINDOW.OBJ
^C:\USERS\MITSU\DESKTOP\GAME\CLASSES\ARENAVIEW.CPP|C:\USERS\MITSU\DESKTOP\GAME\CLASSES\CIRCLE.CPP|C:\USERS\MITSU\DESKTOP\GAME\CLASSES\CIRCLEFACTORY.CPP|C:\USERS\MITSU\DESKTOP\GAME\CLASSES\DOWNLOADMANAGER.CPP|C:\USERS\MITSU\DESKTOP\GAME\CLASSES\DOWNLOADWINDOW.CPP|C:\USERS\MITSU\DESKTOP\GAME\CLASSES\GAME.CPP|C:\USERS\MITSU\DESKTOP\GAME\CLASSES\GAMEBUTTONS.CPP|C:\USERS\MITSU\DESKTOP\GAME\CLASSES\HELPER.CPP|C:\USERS\MITSU\DESKTOP\GAME\CLASSES\LEVELSWINDOW.CPP|C:\USERS\MITSU\DESKTOP\GAME\CLASSES\LIFEBAR.CPP|C:\USERS\MITSU\DESKTOP\GAME\CLASSES\MAINMENU.CPP|C:\USERS\MITSU\DESKTOP\GAME\CLASSES\SCOREMANAGER.CPP|C:\USERS\MITSU\DESKTOP\GAME\CLASSES\SETTINGSVIEW.CPP|C:\USERS\MITSU\DESKTOP\GAME\CLASSES\UI.CPP
C:\USERS\MITSU\DESKTOP\GAME\PROJ.WIN32\GAME.DIR\DEBUG\LIFEBAR.OBJ
C:\USERS\MITSU\DESKTOP\GAME\PROJ.WIN32\GAME.DIR\DEBUG\SCOREMANAGER.OBJ
C:\USERS\MITSU\DESKTOP\GAME\PROJ.WIN32\GAME.DIR\DEBUG\GAMEBUTTONS.OBJ
C:\USERS\MITSU\DESKTOP\GAME\PROJ.WIN32\GAME.DIR\DEBUG\UI.OBJ
C:\USERS\MITSU\DESKTOP\GAME\PROJ.WIN32\GAME.DIR\DEBUG\GAME.OBJ
C:\USERS\MITSU\DESKTOP\GAME\PROJ.WIN32\GAME.DIR\DEBUG\CIRCLEFACTORY.OBJ
C:\USERS\MITSU\DESKTOP\GAME\PROJ.WIN32\GAME.DIR\DEBUG\CIRCLE.OBJ
C:\USERS\MITSU\DESKTOP\GAME\PROJ.WIN32\GAME.DIR\DEBUG\LEVELSWINDOW.OBJ
C:\USERS\MITSU\DESKTOP\GAME\PROJ.WIN32\GAME.DIR\DEBUG\HELPER.OBJ
C:\USERS\MITSU\DESKTOP\GAME\PROJ.WIN32\GAME.DIR\DEBUG\SETTINGSVIEW.OBJ
C:\USERS\MITSU\DESKTOP\GAME\PROJ.WIN32\GAME.DIR\DEBUG\ARENAVIEW.OBJ
C:\USERS\MITSU\DESKTOP\GAME\PROJ.WIN32\GAME.DIR\DEBUG\MAINMENU.OBJ
^C:\USERS\MITSU\DESKTOP\GAME\CLASSES\LEVELSWINDOW.CPP|C:\USERS\MITSU\DESKTOP\GAME\CLASSES\MAINMENU.CPP
C:\USERS\MITSU\DESKTOP\GAME\PROJ.WIN32\GAME.DIR\DEBUG\MAINMENU.OBJ
C:\USERS\MITSU\DESKTOP\GAME\PROJ.WIN32\GAME.DIR\DEBUG\LEVELSWINDOW.OBJ
^C:\USERS\MITSU\DESKTOP\GAME\CLASSES\GENRESWINDOW.CPP|C:\USERS\MITSU\DESKTOP\GAME\CLASSES\LEVELSWINDOW.CPP|C:\USERS\MITSU\DESKTOP\GAME\CLASSES\MAINMENU.CPP
C:\USERS\MITSU\DESKTOP\GAME\PROJ.WIN32\GAME.DIR\DEBUG\MAINMENU.OBJ
C:\USERS\MITSU\DESKTOP\GAME\PROJ.WIN32\GAME.DIR\DEBUG\LEVELSWINDOW.OBJ
C:\USERS\MITSU\DESKTOP\GAME\PROJ.WIN32\GAME.DIR\DEBUG\GENRESWINDOW.OBJ
^C:\USERS\MITSU\DESKTOP\GAME\CLASSES\GENRESWINDOW.CPP|C:\USERS\MITSU\DESKTOP\GAME\CLASSES\LEVELSWINDOW.CPP
C:\USERS\MITSU\DESKTOP\GAME\PROJ.WIN32\GAME.DIR\DEBUG\LEVELSWINDOW.OBJ
C:\USERS\MITSU\DESKTOP\GAME\PROJ.WIN32\GAME.DIR\DEBUG\GENRESWINDOW.OBJ
^C:\USERS\MITSU\DESKTOP\GAME\CLASSES\DOWNLOADMANAGER.CPP|C:\USERS\MITSU\DESKTOP\GAME\CLASSES\GENRESWINDOW.CPP|C:\USERS\MITSU\DESKTOP\GAME\CLASSES\LEVELSWINDOW.CPP
C:\USERS\MITSU\DESKTOP\GAME\PROJ.WIN32\GAME.DIR\DEBUG\LEVELSWINDOW.OBJ
C:\USERS\MITSU\DESKTOP\GAME\PROJ.WIN32\GAME.DIR\DEBUG\DOWNLOADMANAGER.OBJ
C:\USERS\MITSU\DESKTOP\GAME\PROJ.WIN32\GAME.DIR\DEBUG\GENRESWINDOW.OBJ
^C:\USERS\MITSU\DESKTOP\GAME\CLASSES\CIRCLEFACTORY.CPP|C:\USERS\MITSU\DESKTOP\GAME\CLASSES\DOWNLOADWINDOW.CPP|C:\USERS\MITSU\DESKTOP\GAME\CLASSES\GAME.CPP|C:\USERS\MITSU\DESKTOP\GAME\CLASSES\GAMEBUTTONS.CPP|C:\USERS\MITSU\DESKTOP\GAME\CLASSES\GENRESWINDOW.CPP|C:\USERS\MITSU\DESKTOP\GAME\CLASSES\LEVELSWINDOW.CPP|C:\USERS\MITSU\DESKTOP\GAME\CLASSES\UI.CPP
C:\USERS\MITSU\DESKTOP\GAME\PROJ.WIN32\GAME.DIR\DEBUG\GENRESWINDOW.OBJ
C:\USERS\MITSU\DESKTOP\GAME\PROJ.WIN32\GAME.DIR\DEBUG\LEVELSWINDOW.OBJ
C:\USERS\MITSU\DESKTOP\GAME\PROJ.WIN32\GAME.DIR\DEBUG\CIRCLEFACTORY.OBJ
C:\USERS\MITSU\DESKTOP\GAME\PROJ.WIN32\GAME.DIR\DEBUG\DOWNLOADWINDOW.OBJ
C:\USERS\MITSU\DESKTOP\GAME\PROJ.WIN32\GAME.DIR\DEBUG\GAMEBUTTONS.OBJ
C:\USERS\MITSU\DESKTOP\GAME\PROJ.WIN32\GAME.DIR\DEBUG\UI.OBJ
^C:\USERS\MITSU\DESKTOP\GAME\CLASSES\CIRCLEFACTORY.CPP|C:\USERS\MITSU\DESKTOP\GAME\CLASSES\GAME.CPP|C:\USERS\MITSU\DESKTOP\GAME\CLASSES\GAMEBUTTONS.CPP|C:\USERS\MITSU\DESKTOP\GAME\CLASSES\LEVELSWINDOW.CPP|C:\USERS\MITSU\DESKTOP\GAME\CLASSES\UI.CPP
C:\USERS\MITSU\DESKTOP\GAME\PROJ.WIN32\GAME.DIR\DEBUG\CIRCLEFACTORY.OBJ
C:\USERS\MITSU\DESKTOP\GAME\PROJ.WIN32\GAME.DIR\DEBUG\LEVELSWINDOW.OBJ
C:\USERS\MITSU\DESKTOP\GAME\PROJ.WIN32\GAME.DIR\DEBUG\GAME.OBJ
C:\USERS\MITSU\DESKTOP\GAME\PROJ.WIN32\GAME.DIR\DEBUG\UI.OBJ
C:\USERS\MITSU\DESKTOP\GAME\PROJ.WIN32\GAME.DIR\DEBUG\GAMEBUTTONS.OBJ
^C:\USERS\MITSU\DESKTOP\GAME\CLASSES\DOWNLOADWINDOW.CPP|C:\USERS\MITSU\DESKTOP\GAME\CLASSES\GENRESWINDOW.CPP
C:\USERS\MITSU\DESKTOP\GAME\PROJ.WIN32\GAME.DIR\DEBUG\DOWNLOADWINDOW.OBJ
C:\USERS\MITSU\DESKTOP\GAME\PROJ.WIN32\GAME.DIR\DEBUG\GENRESWINDOW.OBJ
^C:\USERS\MITSU\DESKTOP\GAME\CLASSES\ARENAVIEW.CPP|C:\USERS\MITSU\DESKTOP\GAME\CLASSES\CIRCLE.CPP|C:\USERS\MITSU\DESKTOP\GAME\CLASSES\CIRCLEFACTORY.CPP|C:\USERS\MITSU\DESKTOP\GAME\CLASSES\DOWNLOADMANAGER.CPP|C:\USERS\MITSU\DESKTOP\GAME\CLASSES\DOWNLOADWINDOW.CPP|C:\USERS\MITSU\DESKTOP\GAME\CLASSES\GAME.CPP|C:\USERS\MITSU\DESKTOP\GAME\CLASSES\GAMEBUTTONS.CPP|C:\USERS\MITSU\DESKTOP\GAME\CLASSES\GENRESWINDOW.CPP|C:\USERS\MITSU\DESKTOP\GAME\CLASSES\HELPER.CPP|C:\USERS\MITSU\DESKTOP\GAME\CLASSES\LEVELSWINDOW.CPP|C:\USERS\MITSU\DESKTOP\GAME\CLASSES\LIFEBAR.CPP|C:\USERS\MITSU\DESKTOP\GAME\CLASSES\MAINMENU.CPP|C:\USERS\MITSU\DESKTOP\GAME\CLASSES\SCOREMANAGER.CPP|C:\USERS\MITSU\DESKTOP\GAME\CLASSES\SETTINGSVIEW.CPP|C:\USERS\MITSU\DESKTOP\GAME\CLASSES\UI.CPP
C:\USERS\MITSU\DESKTOP\GAME\PROJ.WIN32\GAME.DIR\DEBUG\ARENAVIEW.OBJ
C:\USERS\MITSU\DESKTOP\GAME\PROJ.WIN32\GAME.DIR\DEBUG\MAINMENU.OBJ
C:\USERS\MITSU\DESKTOP\GAME\PROJ.WIN32\GAME.DIR\DEBUG\GAMEBUTTONS.OBJ
C:\USERS\MITSU\DESKTOP\GAME\PROJ.WIN32\GAME.DIR\DEBUG\SETTINGSVIEW.OBJ
C:\USERS\MITSU\DESKTOP\GAME\PROJ.WIN32\GAME.DIR\DEBUG\GENRESWINDOW.OBJ
C:\USERS\MITSU\DESKTOP\GAME\PROJ.WIN32\GAME.DIR\DEBUG\GAME.OBJ
C:\USERS\MITSU\DESKTOP\GAME\PROJ.WIN32\GAME.DIR\DEBUG\UI.OBJ
C:\USERS\MITSU\DESKTOP\GAME\PROJ.WIN32\GAME.DIR\DEBUG\CIRCLE.OBJ
C:\USERS\MITSU\DESKTOP\GAME\PROJ.WIN32\GAME.DIR\DEBUG\LIFEBAR.OBJ
C:\USERS\MITSU\DESKTOP\GAME\PROJ.WIN32\GAME.DIR\DEBUG\DOWNLOADWINDOW.OBJ
C:\USERS\MITSU\DESKTOP\GAME\PROJ.WIN32\GAME.DIR\DEBUG\SCOREMANAGER.OBJ
C:\USERS\MITSU\DESKTOP\GAME\PROJ.WIN32\GAME.DIR\DEBUG\CIRCLEFACTORY.OBJ
C:\USERS\MITSU\DESKTOP\GAME\PROJ.WIN32\GAME.DIR\DEBUG\HELPER.OBJ
C:\USERS\MITSU\DESKTOP\GAME\PROJ.WIN32\GAME.DIR\DEBUG\DOWNLOADMANAGER.OBJ
C:\USERS\MITSU\DESKTOP\GAME\PROJ.WIN32\GAME.DIR\DEBUG\LEVELSWINDOW.OBJ
^C:\USERS\MITSU\DESKTOP\GAME\CLASSES\DOWNLOADMANAGER.CPP|C:\USERS\MITSU\DESKTOP\GAME\CLASSES\DOWNLOADWINDOW.CPP
C:\USERS\MITSU\DESKTOP\GAME\PROJ.WIN32\GAME.DIR\DEBUG\DOWNLOADMANAGER.OBJ
C:\USERS\MITSU\DESKTOP\GAME\PROJ.WIN32\GAME.DIR\DEBUG\DOWNLOADWINDOW.OBJ
^C:\USERS\MITSU\DESKTOP\GAME\CLASSES\DOWNLOADMANAGER.CPP|C:\USERS\MITSU\DESKTOP\GAME\CLASSES\DOWNLOADWINDOW.CPP|C:\USERS\MITSU\DESKTOP\GAME\CLASSES\GENRESWINDOW.CPP
C:\USERS\MITSU\DESKTOP\GAME\PROJ.WIN32\GAME.DIR\DEBUG\GENRESWINDOW.OBJ
C:\USERS\MITSU\DESKTOP\GAME\PROJ.WIN32\GAME.DIR\DEBUG\DOWNLOADMANAGER.OBJ
C:\USERS\MITSU\DESKTOP\GAME\PROJ.WIN32\GAME.DIR\DEBUG\DOWNLOADWINDOW.OBJ
^C:\USERS\MITSU\DESKTOP\GAME\CLASSES\GENRESWINDOW.CPP|C:\USERS\MITSU\DESKTOP\GAME\CLASSES\MAINMENU.CPP
C:\USERS\MITSU\DESKTOP\GAME\PROJ.WIN32\GAME.DIR\DEBUG\GENRESWINDOW.OBJ
C:\USERS\MITSU\DESKTOP\GAME\PROJ.WIN32\GAME.DIR\DEBUG\MAINMENU.OBJ
^C:\USERS\MITSU\DESKTOP\GAME\CLASSES\APPDELEGATE.CPP|C:\USERS\MITSU\DESKTOP\GAME\CLASSES\DOWNLOADMANAGER.CPP|C:\USERS\MITSU\DESKTOP\GAME\CLASSES\GENRESWINDOW.CPP
C:\USERS\MITSU\DESKTOP\GAME\PROJ.WIN32\GAME.DIR\DEBUG\GENRESWINDOW.OBJ
C:\USERS\MITSU\DESKTOP\GAME\PROJ.WIN32\GAME.DIR\DEBUG\DOWNLOADMANAGER.OBJ
^C:\USERS\MITSU\DESKTOP\GAME\CLASSES\APPDELEGATE.CPP|C:\USERS\MITSU\DESKTOP\GAME\CLASSES\GENRESWINDOW.CPP|C:\USERS\MITSU\DESKTOP\GAME\CLASSES\LEVELSWINDOW.CPP|C:\USERS\MITSU\DESKTOP\GAME\CLASSES\MAINMENU.CPP|C:\USERS\MITSU\DESKTOP\GAME\CLASSES\SETTINGSWINDOW.CPP|C:\USERS\MITSU\DESKTOP\GAME\CLASSES\UI.CPP
C:\USERS\MITSU\DESKTOP\GAME\PROJ.WIN32\GAME.DIR\DEBUG\APPDELEGATE.OBJ
C:\USERS\MITSU\DESKTOP\GAME\PROJ.WIN32\GAME.DIR\DEBUG\SETTINGSWINDOW.OBJ
C:\USERS\MITSU\DESKTOP\GAME\PROJ.WIN32\GAME.DIR\DEBUG\UI.OBJ
C:\USERS\MITSU\DESKTOP\GAME\PROJ.WIN32\GAME.DIR\DEBUG\MAINMENU.OBJ
C:\USERS\MITSU\DESKTOP\GAME\PROJ.WIN32\GAME.DIR\DEBUG\GENRESWINDOW.OBJ
C:\USERS\MITSU\DESKTOP\GAME\PROJ.WIN32\GAME.DIR\DEBUG\LEVELSWINDOW.OBJ
^C:\USERS\MITSU\DESKTOP\GAME\CLASSES\APPDELEGATE.CPP
C:\USERS\MITSU\DESKTOP\GAME\PROJ.WIN32\GAME.DIR\DEBUG\VC142.PDB
^C:\USERS\MITSU\DESKTOP\GAME\CLASSES\ARENAVIEW.CPP|C:\USERS\MITSU\DESKTOP\GAME\CLASSES\CIRCLE.CPP|C:\USERS\MITSU\DESKTOP\GAME\CLASSES\CIRCLEFACTORY.CPP|C:\USERS\MITSU\DESKTOP\GAME\CLASSES\DOWNLOADMANAGER.CPP|C:\USERS\MITSU\DESKTOP\GAME\CLASSES\DOWNLOADWINDOW.CPP|C:\USERS\MITSU\DESKTOP\GAME\CLASSES\GAME.CPP|C:\USERS\MITSU\DESKTOP\GAME\CLASSES\GAMEBUTTONS.CPP|C:\USERS\MITSU\DESKTOP\GAME\CLASSES\GENRESWINDOW.CPP|C:\USERS\MITSU\DESKTOP\GAME\CLASSES\HELPER.CPP|C:\USERS\MITSU\DESKTOP\GAME\CLASSES\LEVELSWINDOW.CPP|C:\USERS\MITSU\DESKTOP\GAME\CLASSES\LIFEBAR.CPP|C:\USERS\MITSU\DESKTOP\GAME\CLASSES\MAINMENU.CPP|C:\USERS\MITSU\DESKTOP\GAME\CLASSES\SCOREMANAGER.CPP|C:\USERS\MITSU\DESKTOP\GAME\CLASSES\SETTINGS.CPP|C:\USERS\MITSU\DESKTOP\GAME\CLASSES\SETTINGSWINDOW.CPP|C:\USERS\MITSU\DESKTOP\GAME\CLASSES\UI.CPP
C:\USERS\MITSU\DESKTOP\GAME\PROJ.WIN32\GAME.DIR\DEBUG\ARENAVIEW.OBJ
C:\USERS\MITSU\DESKTOP\GAME\PROJ.WIN32\GAME.DIR\DEBUG\LIFEBAR.OBJ
C:\USERS\MITSU\DESKTOP\GAME\PROJ.WIN32\GAME.DIR\DEBUG\CIRCLEFACTORY.OBJ
C:\USERS\MITSU\DESKTOP\GAME\PROJ.WIN32\GAME.DIR\DEBUG\HELPER.OBJ
C:\USERS\MITSU\DESKTOP\GAME\PROJ.WIN32\GAME.DIR\DEBUG\CIRCLE.OBJ
C:\USERS\MITSU\DESKTOP\GAME\PROJ.WIN32\GAME.DIR\DEBUG\MAINMENU.OBJ
C:\USERS\MITSU\DESKTOP\GAME\PROJ.WIN32\GAME.DIR\DEBUG\DOWNLOADMANAGER.OBJ
C:\USERS\MITSU\DESKTOP\GAME\PROJ.WIN32\GAME.DIR\DEBUG\LEVELSWINDOW.OBJ
C:\USERS\MITSU\DESKTOP\GAME\PROJ.WIN32\GAME.DIR\DEBUG\GENRESWINDOW.OBJ
C:\USERS\MITSU\DESKTOP\GAME\PROJ.WIN32\GAME.DIR\DEBUG\UI.OBJ
C:\USERS\MITSU\DESKTOP\GAME\PROJ.WIN32\GAME.DIR\DEBUG\GAMEBUTTONS.OBJ
C:\USERS\MITSU\DESKTOP\GAME\PROJ.WIN32\GAME.DIR\DEBUG\SCOREMANAGER.OBJ
C:\USERS\MITSU\DESKTOP\GAME\PROJ.WIN32\GAME.DIR\DEBUG\DOWNLOADWINDOW.OBJ
C:\USERS\MITSU\DESKTOP\GAME\PROJ.WIN32\GAME.DIR\DEBUG\SETTINGS.OBJ
C:\USERS\MITSU\DESKTOP\GAME\PROJ.WIN32\GAME.DIR\DEBUG\GAME.OBJ
^C:\USERS\MITSU\DESKTOP\GAME\CLASSES\SETTINGS.CPP
C:\USERS\MITSU\DESKTOP\GAME\PROJ.WIN32\GAME.DIR\DEBUG\SETTINGS.OBJ
^C:\USERS\MITSU\DESKTOP\GAME\CLASSES\CIRCLE.CPP|C:\USERS\MITSU\DESKTOP\GAME\CLASSES\CIRCLEFACTORY.CPP|C:\USERS\MITSU\DESKTOP\GAME\CLASSES\GAME.CPP|C:\USERS\MITSU\DESKTOP\GAME\CLASSES\GAMEBUTTONS.CPP|C:\USERS\MITSU\DESKTOP\GAME\CLASSES\LEVELSWINDOW.CPP
C:\USERS\MITSU\DESKTOP\GAME\PROJ.WIN32\GAME.DIR\DEBUG\CIRCLE.OBJ
C:\USERS\MITSU\DESKTOP\GAME\PROJ.WIN32\GAME.DIR\DEBUG\GAME.OBJ
C:\USERS\MITSU\DESKTOP\GAME\PROJ.WIN32\GAME.DIR\DEBUG\GAMEBUTTONS.OBJ
C:\USERS\MITSU\DESKTOP\GAME\PROJ.WIN32\GAME.DIR\DEBUG\LEVELSWINDOW.OBJ
^C:\USERS\MITSU\DESKTOP\GAME\CLASSES\CIRCLEFACTORY.CPP|C:\USERS\MITSU\DESKTOP\GAME\CLASSES\GAME.CPP
C:\USERS\MITSU\DESKTOP\GAME\PROJ.WIN32\GAME.DIR\DEBUG\GAME.OBJ
C:\USERS\MITSU\DESKTOP\GAME\PROJ.WIN32\GAME.DIR\DEBUG\CIRCLEFACTORY.OBJ
^C:\USERS\MITSU\DESKTOP\GAME\CLASSES\GAME.CPP|C:\USERS\MITSU\DESKTOP\GAME\CLASSES\GAMEBUTTONS.CPP|C:\USERS\MITSU\DESKTOP\GAME\CLASSES\SCOREMANAGER.CPP
C:\USERS\MITSU\DESKTOP\GAME\PROJ.WIN32\GAME.DIR\DEBUG\GAMEBUTTONS.OBJ
C:\USERS\MITSU\DESKTOP\GAME\PROJ.WIN32\GAME.DIR\DEBUG\GAME.OBJ
C:\USERS\MITSU\DESKTOP\GAME\PROJ.WIN32\GAME.DIR\DEBUG\SCOREMANAGER.OBJ
^C:\USERS\MITSU\DESKTOP\GAME\CLASSES\CIRCLE.CPP|C:\USERS\MITSU\DESKTOP\GAME\CLASSES\GAME.CPP|C:\USERS\MITSU\DESKTOP\GAME\CLASSES\GAMEBUTTONS.CPP|C:\USERS\MITSU\DESKTOP\GAME\CLASSES\SCOREMANAGER.CPP
C:\USERS\MITSU\DESKTOP\GAME\PROJ.WIN32\GAME.DIR\DEBUG\GAMEBUTTONS.OBJ
C:\USERS\MITSU\DESKTOP\GAME\PROJ.WIN32\GAME.DIR\DEBUG\CIRCLE.OBJ
C:\USERS\MITSU\DESKTOP\GAME\PROJ.WIN32\GAME.DIR\DEBUG\GAME.OBJ
C:\USERS\MITSU\DESKTOP\GAME\PROJ.WIN32\GAME.DIR\DEBUG\SCOREMANAGER.OBJ
^C:\USERS\MITSU\DESKTOP\GAME\CLASSES\GAME.CPP|C:\USERS\MITSU\DESKTOP\GAME\CLASSES\GAMEBUTTONS.CPP
C:\USERS\MITSU\DESKTOP\GAME\PROJ.WIN32\GAME.DIR\DEBUG\GAME.OBJ
C:\USERS\MITSU\DESKTOP\GAME\PROJ.WIN32\GAME.DIR\DEBUG\GAMEBUTTONS.OBJ
^C:\USERS\MITSU\DESKTOP\GAME\CLASSES\GAMEBUTTONS.CPP|C:\USERS\MITSU\DESKTOP\GAME\CLASSES\SCOREMANAGER.CPP
C:\USERS\MITSU\DESKTOP\GAME\PROJ.WIN32\GAME.DIR\DEBUG\SCOREMANAGER.OBJ
C:\USERS\MITSU\DESKTOP\GAME\PROJ.WIN32\GAME.DIR\DEBUG\GAMEBUTTONS.OBJ
^C:\USERS\MITSU\DESKTOP\GAME\CLASSES\DOWNLOADWINDOW.CPP|C:\USERS\MITSU\DESKTOP\GAME\CLASSES\GAME.CPP
C:\USERS\MITSU\DESKTOP\GAME\PROJ.WIN32\GAME.DIR\DEBUG\GAME.OBJ
C:\USERS\MITSU\DESKTOP\GAME\PROJ.WIN32\GAME.DIR\DEBUG\DOWNLOADWINDOW.OBJ
^C:\USERS\MITSU\DESKTOP\GAME\CLASSES\ARENAVIEW.CPP|C:\USERS\MITSU\DESKTOP\GAME\CLASSES\CIRCLE.CPP|C:\USERS\MITSU\DESKTOP\GAME\CLASSES\CIRCLEFACTORY.CPP|C:\USERS\MITSU\DESKTOP\GAME\CLASSES\DOWNLOADMANAGER.CPP|C:\USERS\MITSU\DESKTOP\GAME\CLASSES\DOWNLOADWINDOW.CPP|C:\USERS\MITSU\DESKTOP\GAME\CLASSES\GAME.CPP|C:\USERS\MITSU\DESKTOP\GAME\CLASSES\GAMEBUTTONS.CPP|C:\USERS\MITSU\DESKTOP\GAME\CLASSES\GENRESWINDOW.CPP|C:\USERS\MITSU\DESKTOP\GAME\CLASSES\HELPER.CPP|C:\USERS\MITSU\DESKTOP\GAME\CLASSES\HIGHSCORE.CPP|C:\USERS\MITSU\DESKTOP\GAME\CLASSES\LEVELSWINDOW.CPP|C:\USERS\MITSU\DESKTOP\GAME\CLASSES\LIFEBAR.CPP|C:\USERS\MITSU\DESKTOP\GAME\CLASSES\MAINMENU.CPP|C:\USERS\MITSU\DESKTOP\GAME\CLASSES\SCOREMANAGER.CPP|C:\USERS\MITSU\DESKTOP\GAME\CLASSES\SETTINGSWINDOW.CPP|C:\USERS\MITSU\DESKTOP\GAME\CLASSES\UI.CPP
C:\USERS\MITSU\DESKTOP\GAME\PROJ.WIN32\GAME.DIR\DEBUG\GAME.OBJ
C:\USERS\MITSU\DESKTOP\GAME\PROJ.WIN32\GAME.DIR\DEBUG\SETTINGSWINDOW.OBJ
C:\USERS\MITSU\DESKTOP\GAME\PROJ.WIN32\GAME.DIR\DEBUG\ARENAVIEW.OBJ
C:\USERS\MITSU\DESKTOP\GAME\PROJ.WIN32\GAME.DIR\DEBUG\LEVELSWINDOW.OBJ
C:\USERS\MITSU\DESKTOP\GAME\PROJ.WIN32\GAME.DIR\DEBUG\HIGHSCORE.OBJ
C:\USERS\MITSU\DESKTOP\GAME\PROJ.WIN32\GAME.DIR\DEBUG\LIFEBAR.OBJ
C:\USERS\MITSU\DESKTOP\GAME\PROJ.WIN32\GAME.DIR\DEBUG\GAMEBUTTONS.OBJ
C:\USERS\MITSU\DESKTOP\GAME\PROJ.WIN32\GAME.DIR\DEBUG\SCOREMANAGER.OBJ
C:\USERS\MITSU\DESKTOP\GAME\PROJ.WIN32\GAME.DIR\DEBUG\DOWNLOADWINDOW.OBJ
C:\USERS\MITSU\DESKTOP\GAME\PROJ.WIN32\GAME.DIR\DEBUG\CIRCLE.OBJ
C:\USERS\MITSU\DESKTOP\GAME\PROJ.WIN32\GAME.DIR\DEBUG\HELPER.OBJ
C:\USERS\MITSU\DESKTOP\GAME\PROJ.WIN32\GAME.DIR\DEBUG\MAINMENU.OBJ
C:\USERS\MITSU\DESKTOP\GAME\PROJ.WIN32\GAME.DIR\DEBUG\DOWNLOADMANAGER.OBJ
C:\USERS\MITSU\DESKTOP\GAME\PROJ.WIN32\GAME.DIR\DEBUG\CIRCLEFACTORY.OBJ
C:\USERS\MITSU\DESKTOP\GAME\PROJ.WIN32\GAME.DIR\DEBUG\GENRESWINDOW.OBJ
C:\USERS\MITSU\DESKTOP\GAME\PROJ.WIN32\GAME.DIR\DEBUG\UI.OBJ
^C:\USERS\MITSU\DESKTOP\GAME\CLASSES\DOWNLOADMANAGER.CPP
C:\USERS\MITSU\DESKTOP\GAME\PROJ.WIN32\GAME.DIR\DEBUG\VC142.PDB
^C:\USERS\MITSU\DESKTOP\GAME\CLASSES\DOWNLOADWINDOW.CPP
C:\USERS\MITSU\DESKTOP\GAME\PROJ.WIN32\GAME.DIR\DEBUG\VC142.PDB
^C:\USERS\MITSU\DESKTOP\GAME\CLASSES\GAMEBUTTONS.CPP
C:\USERS\MITSU\DESKTOP\GAME\PROJ.WIN32\GAME.DIR\DEBUG\VC142.PDB
^C:\USERS\MITSU\DESKTOP\GAME\CLASSES\ARENAVIEW.CPP
C:\USERS\MITSU\DESKTOP\GAME\PROJ.WIN32\GAME.DIR\DEBUG\VC142.PDB
^C:\USERS\MITSU\DESKTOP\GAME\CLASSES\HELPER.CPP
C:\USERS\MITSU\DESKTOP\GAME\PROJ.WIN32\GAME.DIR\DEBUG\VC142.PDB
^C:\USERS\MITSU\DESKTOP\GAME\CLASSES\HIGHSCORE.CPP
C:\USERS\MITSU\DESKTOP\GAME\PROJ.WIN32\GAME.DIR\DEBUG\VC142.PDB
^C:\USERS\MITSU\DESKTOP\GAME\CLASSES\GENRESWINDOW.CPP
C:\USERS\MITSU\DESKTOP\GAME\PROJ.WIN32\GAME.DIR\DEBUG\VC142.PDB
^C:\USERS\MITSU\DESKTOP\GAME\CLASSES\LIFEBAR.CPP
C:\USERS\MITSU\DESKTOP\GAME\PROJ.WIN32\GAME.DIR\DEBUG\VC142.PDB
^C:\USERS\MITSU\DESKTOP\GAME\CLASSES\CIRCLE.CPP
C:\USERS\MITSU\DESKTOP\GAME\PROJ.WIN32\GAME.DIR\DEBUG\VC142.PDB
^C:\USERS\MITSU\DESKTOP\GAME\CLASSES\CIRCLEFACTORY.CPP
C:\USERS\MITSU\DESKTOP\GAME\PROJ.WIN32\GAME.DIR\DEBUG\VC142.PDB
^C:\USERS\MITSU\DESKTOP\GAME\CLASSES\MAINMENU.CPP
C:\USERS\MITSU\DESKTOP\GAME\PROJ.WIN32\GAME.DIR\DEBUG\VC142.PDB
^C:\USERS\MITSU\DESKTOP\GAME\CLASSES\SCOREMANAGER.CPP
C:\USERS\MITSU\DESKTOP\GAME\PROJ.WIN32\GAME.DIR\DEBUG\VC142.PDB
^C:\USERS\MITSU\DESKTOP\GAME\CLASSES\SETTINGSWINDOW.CPP
C:\USERS\MITSU\DESKTOP\GAME\PROJ.WIN32\GAME.DIR\DEBUG\VC142.PDB
^C:\USERS\MITSU\DESKTOP\GAME\CLASSES\UI.CPP
C:\USERS\MITSU\DESKTOP\GAME\PROJ.WIN32\GAME.DIR\DEBUG\VC142.PDB
^C:\USERS\MITSU\DESKTOP\GAME\CLASSES\GAME.CPP
C:\USERS\MITSU\DESKTOP\GAME\PROJ.WIN32\GAME.DIR\DEBUG\VC142.PDB
C:\USERS\MITSU\DESKTOP\GAME\PROJ.WIN32\GAME.DIR\DEBUG\GAME.OBJ
^C:\USERS\MITSU\DESKTOP\GAME\CLASSES\LEVELSWINDOW.CPP
C:\USERS\MITSU\DESKTOP\GAME\PROJ.WIN32\GAME.DIR\DEBUG\VC142.PDB
C:\USERS\MITSU\DESKTOP\GAME\PROJ.WIN32\GAME.DIR\DEBUG\LEVELSWINDOW.OBJ
