#Command: "C:\Program Files (x86)\Microsoft Visual Studio\2019\Community\VC\Tools\MSVC\14.24.28314\bin\HostX64\x86\link.exe" /ERRORREPORT:PROMPT @C:\Users\mitsu\AppData\Local\Temp\tmp5b8f0a0dcdba493da4e2aeba20859d86.rsp /nologo /incremental /fullbuild
^C:\USERS\MITSU\DESKTOP\GAME\PROJ.WIN32\GAME.DIR\DEBUG\APPDELEGATE.OBJ|C:\USERS\MITSU\DESKTOP\GAME\PROJ.WIN32\GAME.DIR\DEBUG\ARENAVIEW.OBJ|C:\USERS\MITSU\DESKTOP\GAME\PROJ.WIN32\GAME.DIR\DEBUG\CIRCLE.OBJ|C:\USERS\MITSU\DESKTOP\GAME\PROJ.WIN32\GAME.DIR\DEBUG\CIRCLEFACTORY.OBJ|C:\USERS\MITSU\DESKTOP\GAME\PROJ.WIN32\GAME.DIR\DEBUG\CONSTANTS.OBJ|C:\USERS\MITSU\DESKTOP\GAME\PROJ.WIN32\GAME.DIR\DEBUG\DOWNLOADMANAGER.OBJ|C:\USERS\MITSU\DESKTOP\GAME\PROJ.WIN32\GAME.DIR\DEBUG\GAME.OBJ|C:\USERS\MITSU\DESKTOP\GAME\PROJ.WIN32\GAME.DIR\DEBUG\GAME.RES|C:\USERS\MITSU\DESKTOP\GAME\PROJ.WIN32\GAME.DIR\DEBUG\GAMEBUTTONS.OBJ|C:\USERS\MITSU\DESKTOP\GAME\PROJ.WIN32\GAME.DIR\DEBUG\HELLOWORLDSCENE.OBJ|C:\USERS\MITSU\DESKTOP\GAME\PROJ.WIN32\GAME.DIR\DEBUG\HELPER.OBJ|C:\USERS\MITSU\DESKTOP\GAME\PROJ.WIN32\GAME.DIR\DEBUG\JSONCPP.OBJ|C:\USERS\MITSU\DESKTOP\GAME\PROJ.WIN32\GAME.DIR\DEBUG\LEVELSWINDOW.OBJ|C:\USERS\MITSU\DESKTOP\GAME\PROJ.WIN32\GAME.DIR\DEBUG\LIFEBAR.OBJ|C:\USERS\MITSU\DESKTOP\GAME\PROJ.WIN32\GAME.DIR\DEBUG\MAIN.OBJ|C:\USERS\MITSU\DESKTOP\GAME\PROJ.WIN32\GAME.DIR\DEBUG\MAINMENU.OBJ|C:\USERS\MITSU\DESKTOP\GAME\PROJ.WIN32\GAME.DIR\DEBUG\PANELSETTINGS.OBJ|C:\USERS\MITSU\DESKTOP\GAME\PROJ.WIN32\GAME.DIR\DEBUG\PRECHEADER.OBJ|C:\USERS\MITSU\DESKTOP\GAME\PROJ.WIN32\GAME.DIR\DEBUG\SCOREMANAGER.OBJ|C:\USERS\MITSU\DESKTOP\GAME\PROJ.WIN32\GAME.DIR\DEBUG\SETTINGS.OBJ|C:\USERS\MITSU\DESKTOP\GAME\PROJ.WIN32\GAME.DIR\DEBUG\SETTINGSVIEW.OBJ|C:\USERS\MITSU\DESKTOP\GAME\PROJ.WIN32\GAME.DIR\DEBUG\UI.OBJ
C:\USERS\MITSU\DESKTOP\GAME\PROJ.WIN32\BIN\GAME\DEBUG\GAME.PDB
